{
  "info" : {
    "author" : "xcode",
    "version" : 1
  },
  "properties" : {
    "grid-size" : "regular"
  },
  "stickers" : [
    {
      "filename" : "DTR-red@3x.sticker"
    },
    {
      "filename" : "DTR-blue@3x.sticker"
    },
    {
      "filename" : "DTR-green@3x.sticker"
    },
    {
      "filename" : "DownToRide-red@3x.sticker"
    },
    {
      "filename" : "DownToRide-blue@3x.sticker"
    },
    {
      "filename" : "DownToRide-green@3x.sticker"
    },
    {
      "filename" : "1210_DTRiconTransSTOKED_02@3x.sticker"
    },
    {
      "filename" : "1210_DTRiconTransSTOKED_01@3x.sticker"
    },
    {
      "filename" : "1210_DTRiconTransSTOKED_03@3x.sticker"
    },
    {
      "filename" : "fullsend-red@3x.sticker"
    },
    {
      "filename" : "fullsend-blue@3x.sticker"
    },
    {
      "filename" : "fullsend-green@3x.sticker"
    },
    {
      "filename" : "1210_DTRiconTransFanny_02@3x.sticker"
    },
    {
      "filename" : "1210_DTRiconTransFanny_01@3x.sticker"
    },
    {
      "filename" : "1210_DTRiconTransFanny_03@3x.sticker"
    },
    {
      "filename" : "Gear-red@3x.sticker"
    },
    {
      "filename" : "Gear-green@3x.sticker"
    },
    {
      "filename" : "Gear-blue@3x.sticker"
    },
    {
      "filename" : "Weekend-warriror@3x.sticker"
    },
    {
      "filename" : "Balance-bike@3x.sticker"
    },
    {
      "filename" : "Wheelie@3x.sticker"
    }
  ]
}
